<?xml version="1.0" encoding="utf-8"?>
<!-- Generator: Adobe Illustrator 24.1.2, SVG Export Plug-In . SVG Version: 6.00 Build 0)  -->
<svg version="1.1" id="Layer_1" xmlns="http://www.w3.org/2000/svg" xmlns:xlink="http://www.w3.org/1999/xlink" x="0px" y="0px"
	 viewBox="0 0 200 200" enable-background="new 0 0 200 200" xml:space="preserve">
<g>
	<path fill="#A855F7" d="M3.9,68.6c0-5.5,1-10.7,3-15.5c2-4.8,4.8-9,8.3-12.5s7.7-6.4,12.5-8.4s10-3,15.6-3h39.5v19.2H43.3
		c-6.1,0-11,1.8-14.7,5.6c-3.7,3.7-5.6,8.6-5.6,14.7c0,4.6,1.7,8.3,5.1,11s7.6,5.2,12.5,7.2c5,2,10.4,4.1,16.3,6.1
		c5.9,2,11.3,4.5,16.3,7.5c5,3,9.2,6.7,12.5,11.2c3.4,4.5,5.1,10.4,5.1,17.7c0,5.8-1.1,11.2-3.2,16.3c-2.2,5.1-5.1,9.5-8.8,13.2
		c-3.7,3.7-8.1,6.6-13.1,8.8c-5.1,2.2-10.5,3.2-16.3,3.2H5.9v-19.2h43.5c6.6,0,12-2.1,16.1-6.2c4.1-4.1,6.2-9.5,6.2-16.1
		c0-4.6-1.7-8.3-5.1-11c-3.4-2.8-7.6-5.2-12.5-7.2s-10.4-4.1-16.3-6.1c-5.9-2-11.3-4.5-16.3-7.5c-5-3-9.2-6.7-12.5-11.2
		C5.6,81.8,3.9,75.9,3.9,68.6z"/>
	<path fill="#A855F7" d="M196.1,29.2v141.7h-19.2l-50.6-99.2v99.2h-19.2V48.4H90.9V29.2h35.4l50.6,99.2V29.2H196.1z"/>
</g>
</svg>
