<svg xmlns="http://www.w3.org/2000/svg" xmlns:xlink="http://www.w3.org/1999/xlink" viewBox="0 0 976.7 180.7">
	<g id="logo">
	<path d="M59.1,104.4c-18.8-5.4-32.5-12-41-19.9S5.2,66.9,5.2,55.3c0-13.1,5.2-23.9,15.7-32.5C31.4,14.3,45,10,61.7,10
		c11.4,0,21.6,2.2,30.5,6.6c8.9,4.4,15.9,10.5,20.8,18.3c4.9,7.8,7.4,16.2,7.4,25.4h-22c0-10.1-3.2-18-9.6-23.8
		c-6.4-5.8-15.4-8.6-27-8.6c-10.8,0-19.2,2.4-25.3,7.1c-6,4.8-9.1,11.4-9.1,19.8c0,6.8,2.9,12.5,8.6,17.2c5.7,4.7,15.5,9,29.3,12.9
		c13.8,3.9,24.6,8.2,32.4,12.8c7.8,4.7,13.6,10.1,17.3,16.4c3.8,6.2,5.6,13.6,5.6,22c0,13.5-5.2,24.2-15.7,32.4
		s-24.5,12.2-42.1,12.2c-11.4,0-22.1-2.2-32-6.6c-9.9-4.4-17.5-10.4-22.9-18c-5.4-7.6-8-16.2-8-25.9h22c0,10,3.7,18,11.1,23.8
		c7.4,5.8,17.3,8.7,29.7,8.7c11.6,0,20.4-2.4,26.6-7.1c6.2-4.7,9.2-11.1,9.2-19.3c0-8.1-2.9-14.4-8.6-18.9
		C84.4,113.1,74.1,108.7,59.1,104.4z"/>
	<path d="M162.5,25.1V55h23.1v16.3h-23.1V148c0,5,1,8.7,3.1,11.1c2.1,2.5,5.6,3.7,10.5,3.7c2.4,0,5.8-0.5,10-1.4v17
		c-5.6,1.5-11,2.3-16.2,2.3c-9.4,0-16.5-2.9-21.3-8.6s-7.2-13.8-7.2-24.3V71.3h-22.5V55h22.5V25.1H162.5z"/>
	<path d="M249.7,180.7c-16.7,0-30.4-5.5-40.9-16.5c-10.5-11-15.7-25.7-15.7-44.1v-3.9c0-12.2,2.3-23.2,7-32.8
		c4.7-9.6,11.2-17.2,19.6-22.6c8.4-5.4,17.5-8.2,27.3-8.2c16.1,0,28.5,5.3,37.4,15.9c8.9,10.6,13.4,25.7,13.4,45.4v8.8h-83.6
		c0.3,12.2,3.9,22,10.7,29.5c6.8,7.5,15.5,11.2,26,11.2c7.5,0,13.8-1.5,18.9-4.6c5.2-3,9.7-7.1,13.6-12.1l12.9,10
		C285.9,172.8,270.4,180.7,249.7,180.7z M247.1,70.1c-8.5,0-15.7,3.1-21.5,9.3c-5.8,6.2-9.4,14.9-10.7,26.1h61.9v-1.6
		c-0.6-10.7-3.5-19-8.7-24.9C262.9,73,255.9,70.1,247.1,70.1z"/>
	<path d="M333.5,178.5h-21.1V3.2h21.1V178.5z"/>
	<path d="M378.6,178.5h-21.1V3.2h21.1V178.5z"/>
	<path d="M476.9,178.5c-1.2-2.4-2.2-6.8-3-13c-9.8,10.2-21.5,15.3-35.1,15.3c-12.2,0-22.2-3.4-30-10.3c-7.8-6.9-11.7-15.6-11.7-26.2
		c0-12.9,4.9-22.8,14.7-30c9.8-7.1,23.5-10.7,41.3-10.7h20.5v-9.7c0-7.4-2.2-13.3-6.6-17.6c-4.4-4.4-10.9-6.6-19.5-6.6
		c-7.5,0-13.8,1.9-18.9,5.7c-5.1,3.8-7.6,8.4-7.6,13.8h-21.2c0-6.2,2.2-12.1,6.6-17.9c4.4-5.7,10.3-10.3,17.8-13.6
		c7.5-3.3,15.7-5,24.7-5c14.2,0,25.4,3.6,33.4,10.7c8.1,7.1,12.2,16.9,12.6,29.4v56.8c0,11.3,1.4,20.4,4.3,27v1.8H476.9z
		 M441.9,162.4c6.6,0,12.9-1.7,18.8-5.1c5.9-3.4,10.2-7.9,12.9-13.4v-25.3H457c-25.9,0-38.8,7.6-38.8,22.7c0,6.6,2.2,11.8,6.6,15.5
		C429.3,160.5,434.9,162.4,441.9,162.4z"/>
	<path d="M575.8,73.9c-3.2-0.5-6.7-0.8-10.4-0.8c-13.8,0-23.2,5.9-28.2,17.7v87.6h-21.1V55h20.5l0.3,14.3
		c6.9-11,16.7-16.5,29.4-16.5c4.1,0,7.2,0.5,9.4,1.6V73.9z"/>
	<path fill="#A855F7" d="M702.6,0v178.5h-24.2L614.7,53.5v124.9h-24.2V24.2h-20.4V0h44.6l63.7,124.9V0H702.6z"/>
	<path fill="#A855F7" d="M855.6,24.2H746V0h109.6V24.2z M770.2,178.5H746V73.9h86.7v24.2h-62.5V178.5z"/>
	<path fill="#A855F7" d="M863.3,0h113.5v24.2H863.3V0z M932.1,178.5h-24.2V98.2h-44.6V73.9h113.5v24.2h-44.6V178.5z"/>
	</g>
</svg>
